
 Log Entry On: 12/17/2010 10:53:36

 Server Time: 12/16/2010 11:21:16 PM

 Log from : http://localhost/floralapp/Admin/Products.aspx

 Module Info: floralapp Website

 Small Message: Exception of type 'System.Web.HttpUnhandledException' was thrown.

 Message: System.Data.SqlClient.SqlException: Timeout expired.  The timeout period elapsed prior to completion of the operation or the server is not responding.
   at System.Data.SqlClient.SqlInternalConnection.OnError(SqlException exception, Boolean breakConnection)
   at System.Data.SqlClient.TdsParser.ThrowExceptionAndWarning(TdsParserStateObject stateObj)
   at System.Data.SqlClient.TdsParserStateObject.ReadSniError(TdsParserStateObject stateObj, UInt32 error)
   at System.Data.SqlClient.TdsParserStateObject.ReadSni(DbAsyncResult asyncResult, TdsParserStateObject stateObj)
   at System.Data.SqlClient.TdsParserStateObject.ReadNetworkPacket()
   at System.Data.SqlClient.TdsParserStateObject.ReadBuffer()
   at System.Data.SqlClient.TdsParserStateObject.ReadByteArray(Byte[] buff, Int32 offset, Int32 len)
   at System.Data.SqlClient.TdsParserStateObject.ReadUInt32()
   at System.Data.SqlClient.TdsParserStateObject.ReadPlpLength(Boolean returnPlpNullIfNull)
   at System.Data.SqlClient.TdsParserStateObject.ReadPlpBytes(Byte[]& buff, Int32 offst, Int32 len)
   at System.Data.SqlClient.TdsParser.ReadSqlValue(SqlBuffer value, SqlMetaDataPriv md, Int32 length, TdsParserStateObject stateObj)
   at System.Data.SqlClient.SqlDataReader.ReadColumnData()
   at System.Data.SqlClient.SqlDataReader.ReadColumn(Int32 i, Boolean setTimeout)
   at System.Data.SqlClient.SqlDataReader.GetValueInternal(Int32 i)
   at System.Data.SqlClient.SqlDataReader.GetValues(Object[] values)
   at System.Data.ProviderBase.DataReaderContainer.CommonLanguageSubsetDataReader.GetValues(Object[] values)
   at System.Data.ProviderBase.SchemaMapping.LoadDataRow()
   at System.Data.Common.DataAdapter.FillLoadDataRow(SchemaMapping mapping)
   at System.Data.Common.DataAdapter.FillFromReader(DataSet dataset, DataTable datatable, String srcTable, DataReaderContainer dataReader, Int32 startRecord, Int32 maxRecords, DataColumn parentChapterColumn, Object parentChapterValue)
   at System.Data.Common.DataAdapter.Fill(DataSet dataSet, String srcTable, IDataReader dataReader, Int32 startRecord, Int32 maxRecords)
   at System.Data.Common.DbDataAdapter.FillInternal(DataSet dataset, DataTable[] datatables, Int32 startRecord, Int32 maxRecords, String srcTable, IDbCommand command, CommandBehavior behavior)
   at System.Data.Common.DbDataAdapter.Fill(DataSet dataSet, Int32 startRecord, Int32 maxRecords, String srcTable, IDbCommand command, CommandBehavior behavior)
   at System.Data.Common.DbDataAdapter.Fill(DataSet dataSet)
   at Library.DAL.SqlPipe.ExecuteDataset(SqlConnection connection, CommandType commandType, String commandText, SqlParameter[] commandParameters) in d:\Dev\Projects\Beneva Flowers\Workspace\WEB\floralapp\App_Code\Library\DAL\SqlPipe.cs:line 733
   at Library.DAL.SqlPipe.ExecuteDataset(String connectionString, CommandType commandType, String commandText, SqlParameter[] commandParameters) in d:\Dev\Projects\Beneva Flowers\Workspace\WEB\floralapp\App_Code\Library\DAL\SqlPipe.cs:line 645
   at Library.DAL.SqlPipe.ExecuteDataset(String connectionString, String spName, SqlParameter[] commandParameters) in d:\Dev\Projects\Beneva Flowers\Workspace\WEB\floralapp\App_Code\Library\DAL\SqlPipe.cs:line 108
   at Library.DAL.TableSql.List() in d:\Dev\Projects\Beneva Flowers\Workspace\WEB\floralapp\App_Code\Library\DAL\SqlTable.cs:line 325
   at Admin_Products.InitializeControls() in d:\Dev\Projects\Beneva Flowers\Workspace\WEB\floralapp\Admin\Products.aspx.cs:line 39
   at Admin_Products.Page_Load(Object sender, EventArgs e) in d:\Dev\Projects\Beneva Flowers\Workspace\WEB\floralapp\Admin\Products.aspx.cs:line 30
   at System.Web.Util.CalliHelper.EventArgFunctionCaller(IntPtr fp, Object o, Object t, EventArgs e)
   at System.Web.Util.CalliEventHandlerDelegateProxy.Callback(Object sender, EventArgs e)
   at System.Web.UI.Control.OnLoad(EventArgs e)
   at AppPage.OnLoad(EventArgs e) in d:\Dev\Projects\Beneva Flowers\Workspace\WEB\floralapp\App_Code\Library\AppSettings\AppPage.cs:line 46
   at System.Web.UI.Control.LoadRecursive()
   at System.Web.UI.Page.ProcessRequestMain(Boolean includeStagesBeforeAsyncPoint, Boolean includeStagesAfterAsyncPoint)
___________________________________________________

 Log Entry On: 12/17/2010 10:56:45

 Server Time: 12/16/2010 11:24:24 PM

 Log from : http://localhost/floralapp/Admin/Users.aspx?RoleID=2

 Module Info: floralapp Website

 Small Message: Exception of type 'System.Web.HttpUnhandledException' was thrown.

 Message: System.Data.SqlClient.SqlException: Timeout expired.  The timeout period elapsed prior to completion of the operation or the server is not responding.
   at System.Data.SqlClient.SqlInternalConnection.OnError(SqlException exception, Boolean breakConnection)
   at System.Data.SqlClient.TdsParser.ThrowExceptionAndWarning(TdsParserStateObject stateObj)
   at System.Data.SqlClient.TdsParserStateObject.ReadSniError(TdsParserStateObject stateObj, UInt32 error)
   at System.Data.SqlClient.TdsParserStateObject.ReadSni(DbAsyncResult asyncResult, TdsParserStateObject stateObj)
   at System.Data.SqlClient.TdsParserStateObject.ReadNetworkPacket()
   at System.Data.SqlClient.TdsParserStateObject.ReadByteArray(Byte[] buff, Int32 offset, Int32 len)
   at System.Data.SqlClient.TdsParserStateObject.ReadPlpBytesChunk(Byte[] buff, Int32 offset, Int32 len)
   at System.Data.SqlClient.TdsParserStateObject.ReadPlpBytes(Byte[]& buff, Int32 offst, Int32 len)
   at System.Data.SqlClient.TdsParser.ReadSqlValue(SqlBuffer value, SqlMetaDataPriv md, Int32 length, TdsParserStateObject stateObj)
   at System.Data.SqlClient.SqlDataReader.ReadColumnData()
   at System.Data.SqlClient.SqlDataReader.ReadColumn(Int32 i, Boolean setTimeout)
   at System.Data.SqlClient.SqlDataReader.GetValueInternal(Int32 i)
   at System.Data.SqlClient.SqlDataReader.GetValues(Object[] values)
   at System.Data.ProviderBase.DataReaderContainer.CommonLanguageSubsetDataReader.GetValues(Object[] values)
   at System.Data.ProviderBase.SchemaMapping.LoadDataRow()
   at System.Data.Common.DataAdapter.FillLoadDataRow(SchemaMapping mapping)
   at System.Data.Common.DataAdapter.FillFromReader(DataSet dataset, DataTable datatable, String srcTable, DataReaderContainer dataReader, Int32 startRecord, Int32 maxRecords, DataColumn parentChapterColumn, Object parentChapterValue)
   at System.Data.Common.DataAdapter.Fill(DataSet dataSet, String srcTable, IDataReader dataReader, Int32 startRecord, Int32 maxRecords)
   at System.Data.Common.DbDataAdapter.FillInternal(DataSet dataset, DataTable[] datatables, Int32 startRecord, Int32 maxRecords, String srcTable, IDbCommand command, CommandBehavior behavior)
   at System.Data.Common.DbDataAdapter.Fill(DataSet dataSet, Int32 startRecord, Int32 maxRecords, String srcTable, IDbCommand command, CommandBehavior behavior)
   at System.Data.Common.DbDataAdapter.Fill(DataSet dataSet)
   at Library.DAL.SqlPipe.ExecuteDataset(SqlConnection connection, CommandType commandType, String commandText, SqlParameter[] commandParameters) in d:\Dev\Projects\Beneva Flowers\Workspace\WEB\floralapp\App_Code\Library\DAL\SqlPipe.cs:line 733
   at Library.DAL.SqlPipe.ExecuteDataset(String connectionString, CommandType commandType, String commandText, SqlParameter[] commandParameters) in d:\Dev\Projects\Beneva Flowers\Workspace\WEB\floralapp\App_Code\Library\DAL\SqlPipe.cs:line 645
   at Library.DAL.SqlPipe.ExecuteDataset(String connectionString, String spName, SqlParameter[] commandParameters) in d:\Dev\Projects\Beneva Flowers\Workspace\WEB\floralapp\App_Code\Library\DAL\SqlPipe.cs:line 108
   at Library.DAL.TableSql.List() in d:\Dev\Projects\Beneva Flowers\Workspace\WEB\floralapp\App_Code\Library\DAL\SqlTable.cs:line 325
   at Admin_Users.InitializeControls() in d:\Dev\Projects\Beneva Flowers\Workspace\WEB\floralapp\Admin\Users.aspx.cs:line 98
   at Admin_Users.Page_Load(Object sender, EventArgs e) in d:\Dev\Projects\Beneva Flowers\Workspace\WEB\floralapp\Admin\Users.aspx.cs:line 67
   at System.Web.Util.CalliHelper.EventArgFunctionCaller(IntPtr fp, Object o, Object t, EventArgs e)
   at System.Web.Util.CalliEventHandlerDelegateProxy.Callback(Object sender, EventArgs e)
   at System.Web.UI.Control.OnLoad(EventArgs e)
   at AppPage.OnLoad(EventArgs e) in d:\Dev\Projects\Beneva Flowers\Workspace\WEB\floralapp\App_Code\Library\AppSettings\AppPage.cs:line 46
   at System.Web.UI.Control.LoadRecursive()
   at System.Web.UI.Page.ProcessRequestMain(Boolean includeStagesBeforeAsyncPoint, Boolean includeStagesAfterAsyncPoint)
___________________________________________________
