
 Log Entry On: 11/17/2011 19:52:15

 Server Time: 11/17/2011 12:52:25 PM

 Log from : http://localhost:50702/floralapp/Admin/ViralMarketing.aspx

 Module Info: floralapp Website

 Small Message: Exception of type 'System.Web.HttpUnhandledException' was thrown.

 Message: System.Data.SqlClient.SqlException: Must declare the scalar variable "@EmailCount".
   at System.Data.SqlClient.SqlConnection.OnError(SqlException exception, Boolean breakConnection)
   at System.Data.SqlClient.SqlInternalConnection.OnError(SqlException exception, Boolean breakConnection)
   at System.Data.SqlClient.TdsParser.ThrowExceptionAndWarning(TdsParserStateObject stateObj)
   at System.Data.SqlClient.TdsParser.Run(RunBehavior runBehavior, SqlCommand cmdHandler, SqlDataReader dataStream, BulkCopySimpleResultSet bulkCopyHandler, TdsParserStateObject stateObj)
   at System.Data.SqlClient.SqlDataReader.HasMoreRows()
   at System.Data.SqlClient.SqlDataReader.ReadInternal(Boolean setTimeout)
   at System.Data.SqlClient.SqlDataReader.NextResult()
   at System.Data.ProviderBase.DataReaderContainer.NextResult()
   at System.Data.Common.DataAdapter.FillNextResult(DataReaderContainer dataReader)
   at System.Data.Common.DataAdapter.FillFromReader(DataSet dataset, DataTable datatable, String srcTable, DataReaderContainer dataReader, Int32 startRecord, Int32 maxRecords, DataColumn parentChapterColumn, Object parentChapterValue)
   at System.Data.Common.DataAdapter.Fill(DataSet dataSet, String srcTable, IDataReader dataReader, Int32 startRecord, Int32 maxRecords)
   at System.Data.Common.DbDataAdapter.FillInternal(DataSet dataset, DataTable[] datatables, Int32 startRecord, Int32 maxRecords, String srcTable, IDbCommand command, CommandBehavior behavior)
   at System.Data.Common.DbDataAdapter.Fill(DataSet dataSet, Int32 startRecord, Int32 maxRecords, String srcTable, IDbCommand command, CommandBehavior behavior)
   at System.Data.Common.DbDataAdapter.Fill(DataSet dataSet)
   at Library.DAL.SqlPipe.ExecuteDataset(SqlConnection connection, CommandType commandType, String commandText, SqlParameter[] commandParameters) in d:\ASTONWEBER\floralapp\CODE\floralapp\App_Code\Library\DAL\SqlPipe.cs:line 733
   at Library.DAL.SqlPipe.ExecuteDataset(String connectionString, CommandType commandType, String commandText, SqlParameter[] commandParameters) in d:\ASTONWEBER\floralapp\CODE\floralapp\App_Code\Library\DAL\SqlPipe.cs:line 645
   at Library.DAL.SqlPipe.ExecuteDataset(String connectionString, String spName, SqlParameter[] commandParameters) in d:\ASTONWEBER\floralapp\CODE\floralapp\App_Code\Library\DAL\SqlPipe.cs:line 108
   at Data.ViralMarketingRequest.GetFilteredList(Int32 pageIndex, Int32 pageSize, String sortExpression, String filterClause, Int32& rowCount, Int32& totalRowCount, DateTime startDate, DateTime endDate) in d:\ASTONWEBER\floralapp\CODE\floralapp\App_Code\Data\ViralMarketingRequest.cs:line 54
   at Admin_ViralMarketing.GetViralMarketingList() in d:\ASTONWEBER\floralapp\CODE\floralapp\Admin\ViralMarketing.aspx.cs:line 101
   at Admin_ViralMarketing.BindData() in d:\ASTONWEBER\floralapp\CODE\floralapp\Admin\ViralMarketing.aspx.cs:line 63
   at Admin_ViralMarketing.Page_Load(Object sender, EventArgs e) in d:\ASTONWEBER\floralapp\CODE\floralapp\Admin\ViralMarketing.aspx.cs:line 38
   at System.Web.Util.CalliHelper.EventArgFunctionCaller(IntPtr fp, Object o, Object t, EventArgs e)
   at System.Web.Util.CalliEventHandlerDelegateProxy.Callback(Object sender, EventArgs e)
   at System.Web.UI.Control.OnLoad(EventArgs e)
   at AppPage.OnLoad(EventArgs e) in d:\ASTONWEBER\floralapp\CODE\floralapp\App_Code\Library\AppSettings\AppPage.cs:line 46
   at System.Web.UI.Control.LoadRecursive()
   at System.Web.UI.Page.ProcessRequestMain(Boolean includeStagesBeforeAsyncPoint, Boolean includeStagesAfterAsyncPoint)
___________________________________________________

 Log Entry On: 11/17/2011 19:59:04

 Server Time: 11/17/2011 12:59:15 PM

 Log from : http://localhost:50702/floralapp/Admin/ViralMarketing.aspx

 Module Info: floralapp Website

 Small Message: Exception of type 'System.Web.HttpUnhandledException' was thrown.

 Message: System.Data.SqlClient.SqlException: Must declare the scalar variable "@EmailCount".
   at System.Data.SqlClient.SqlConnection.OnError(SqlException exception, Boolean breakConnection)
   at System.Data.SqlClient.SqlInternalConnection.OnError(SqlException exception, Boolean breakConnection)
   at System.Data.SqlClient.TdsParser.ThrowExceptionAndWarning(TdsParserStateObject stateObj)
   at System.Data.SqlClient.TdsParser.Run(RunBehavior runBehavior, SqlCommand cmdHandler, SqlDataReader dataStream, BulkCopySimpleResultSet bulkCopyHandler, TdsParserStateObject stateObj)
   at System.Data.SqlClient.SqlDataReader.HasMoreRows()
   at System.Data.SqlClient.SqlDataReader.ReadInternal(Boolean setTimeout)
   at System.Data.SqlClient.SqlDataReader.NextResult()
   at System.Data.ProviderBase.DataReaderContainer.NextResult()
   at System.Data.Common.DataAdapter.FillNextResult(DataReaderContainer dataReader)
   at System.Data.Common.DataAdapter.FillFromReader(DataSet dataset, DataTable datatable, String srcTable, DataReaderContainer dataReader, Int32 startRecord, Int32 maxRecords, DataColumn parentChapterColumn, Object parentChapterValue)
   at System.Data.Common.DataAdapter.Fill(DataSet dataSet, String srcTable, IDataReader dataReader, Int32 startRecord, Int32 maxRecords)
   at System.Data.Common.DbDataAdapter.FillInternal(DataSet dataset, DataTable[] datatables, Int32 startRecord, Int32 maxRecords, String srcTable, IDbCommand command, CommandBehavior behavior)
   at System.Data.Common.DbDataAdapter.Fill(DataSet dataSet, Int32 startRecord, Int32 maxRecords, String srcTable, IDbCommand command, CommandBehavior behavior)
   at System.Data.Common.DbDataAdapter.Fill(DataSet dataSet)
   at Library.DAL.SqlPipe.ExecuteDataset(SqlConnection connection, CommandType commandType, String commandText, SqlParameter[] commandParameters) in d:\ASTONWEBER\floralapp\CODE\floralapp\App_Code\Library\DAL\SqlPipe.cs:line 733
   at Library.DAL.SqlPipe.ExecuteDataset(String connectionString, CommandType commandType, String commandText, SqlParameter[] commandParameters) in d:\ASTONWEBER\floralapp\CODE\floralapp\App_Code\Library\DAL\SqlPipe.cs:line 645
   at Library.DAL.SqlPipe.ExecuteDataset(String connectionString, String spName, SqlParameter[] commandParameters) in d:\ASTONWEBER\floralapp\CODE\floralapp\App_Code\Library\DAL\SqlPipe.cs:line 108
   at Data.ViralMarketingRequest.GetFilteredList(Int32 pageIndex, Int32 pageSize, String sortExpression, String filterClause, Int32& rowCount, Int32& totalRowCount, DateTime startDate, DateTime endDate) in d:\ASTONWEBER\floralapp\CODE\floralapp\App_Code\Data\ViralMarketingRequest.cs:line 54
   at Admin_ViralMarketing.GetViralMarketingList() in d:\ASTONWEBER\floralapp\CODE\floralapp\Admin\ViralMarketing.aspx.cs:line 101
   at Admin_ViralMarketing.BindData() in d:\ASTONWEBER\floralapp\CODE\floralapp\Admin\ViralMarketing.aspx.cs:line 63
   at Admin_ViralMarketing.Page_Load(Object sender, EventArgs e) in d:\ASTONWEBER\floralapp\CODE\floralapp\Admin\ViralMarketing.aspx.cs:line 38
   at System.Web.Util.CalliHelper.EventArgFunctionCaller(IntPtr fp, Object o, Object t, EventArgs e)
   at System.Web.Util.CalliEventHandlerDelegateProxy.Callback(Object sender, EventArgs e)
   at System.Web.UI.Control.OnLoad(EventArgs e)
   at AppPage.OnLoad(EventArgs e) in d:\ASTONWEBER\floralapp\CODE\floralapp\App_Code\Library\AppSettings\AppPage.cs:line 46
   at System.Web.UI.Control.LoadRecursive()
   at System.Web.UI.Page.ProcessRequestMain(Boolean includeStagesBeforeAsyncPoint, Boolean includeStagesAfterAsyncPoint)
___________________________________________________

 Log Entry On: 11/17/2011 23:09:42

 Server Time: 11/17/2011 4:10:09 PM

 Log from : http://localhost:50702/floralapp/Admin/ViralMarketing.aspx

 Module Info: floralapp Website

 Small Message: Exception of type 'System.Web.HttpUnhandledException' was thrown.

 Message: System.Data.SqlClient.SqlException: Must declare the scalar variable "@EmailCount".
   at System.Data.SqlClient.SqlConnection.OnError(SqlException exception, Boolean breakConnection)
   at System.Data.SqlClient.SqlInternalConnection.OnError(SqlException exception, Boolean breakConnection)
   at System.Data.SqlClient.TdsParser.ThrowExceptionAndWarning(TdsParserStateObject stateObj)
   at System.Data.SqlClient.TdsParser.Run(RunBehavior runBehavior, SqlCommand cmdHandler, SqlDataReader dataStream, BulkCopySimpleResultSet bulkCopyHandler, TdsParserStateObject stateObj)
   at System.Data.SqlClient.SqlDataReader.HasMoreRows()
   at System.Data.SqlClient.SqlDataReader.ReadInternal(Boolean setTimeout)
   at System.Data.SqlClient.SqlDataReader.NextResult()
   at System.Data.ProviderBase.DataReaderContainer.NextResult()
   at System.Data.Common.DataAdapter.FillNextResult(DataReaderContainer dataReader)
   at System.Data.Common.DataAdapter.FillFromReader(DataSet dataset, DataTable datatable, String srcTable, DataReaderContainer dataReader, Int32 startRecord, Int32 maxRecords, DataColumn parentChapterColumn, Object parentChapterValue)
   at System.Data.Common.DataAdapter.Fill(DataSet dataSet, String srcTable, IDataReader dataReader, Int32 startRecord, Int32 maxRecords)
   at System.Data.Common.DbDataAdapter.FillInternal(DataSet dataset, DataTable[] datatables, Int32 startRecord, Int32 maxRecords, String srcTable, IDbCommand command, CommandBehavior behavior)
   at System.Data.Common.DbDataAdapter.Fill(DataSet dataSet, Int32 startRecord, Int32 maxRecords, String srcTable, IDbCommand command, CommandBehavior behavior)
   at System.Data.Common.DbDataAdapter.Fill(DataSet dataSet)
   at Library.DAL.SqlPipe.ExecuteDataset(SqlConnection connection, CommandType commandType, String commandText, SqlParameter[] commandParameters) in d:\ASTONWEBER\floralapp\CODE\floralapp\App_Code\Library\DAL\SqlPipe.cs:line 733
   at Library.DAL.SqlPipe.ExecuteDataset(String connectionString, CommandType commandType, String commandText, SqlParameter[] commandParameters) in d:\ASTONWEBER\floralapp\CODE\floralapp\App_Code\Library\DAL\SqlPipe.cs:line 645
   at Library.DAL.SqlPipe.ExecuteDataset(String connectionString, String spName, SqlParameter[] commandParameters) in d:\ASTONWEBER\floralapp\CODE\floralapp\App_Code\Library\DAL\SqlPipe.cs:line 108
   at Data.ViralMarketingRequest.GetFilteredList(Int32 pageIndex, Int32 pageSize, String sortExpression, String filterClause, Int32& rowCount, Int32& totalRowCount, DateTime startDate, DateTime endDate) in d:\ASTONWEBER\floralapp\CODE\floralapp\App_Code\Data\ViralMarketingRequest.cs:line 54
   at Admin_ViralMarketing.GetViralMarketingList() in d:\ASTONWEBER\floralapp\CODE\floralapp\Admin\ViralMarketing.aspx.cs:line 101
   at Admin_ViralMarketing.BindData() in d:\ASTONWEBER\floralapp\CODE\floralapp\Admin\ViralMarketing.aspx.cs:line 63
   at Admin_ViralMarketing.Page_Load(Object sender, EventArgs e) in d:\ASTONWEBER\floralapp\CODE\floralapp\Admin\ViralMarketing.aspx.cs:line 38
   at System.Web.Util.CalliHelper.EventArgFunctionCaller(IntPtr fp, Object o, Object t, EventArgs e)
   at System.Web.Util.CalliEventHandlerDelegateProxy.Callback(Object sender, EventArgs e)
   at System.Web.UI.Control.OnLoad(EventArgs e)
   at AppPage.OnLoad(EventArgs e) in d:\ASTONWEBER\floralapp\CODE\floralapp\App_Code\Library\AppSettings\AppPage.cs:line 46
   at System.Web.UI.Control.LoadRecursive()
   at System.Web.UI.Page.ProcessRequestMain(Boolean includeStagesBeforeAsyncPoint, Boolean includeStagesAfterAsyncPoint)
___________________________________________________
